4 Practical Four – Practical Submissions
…
prop_flights <- nrow(flights_int)/total_flights
prop_flights

[1] 0.1052391

4.6 Question 6

4.6.1 6.1

multi_al_rout <- flights |> group_by(origin,dest) |> summarise(n_al = n_distinct(carrier), .groups = "drop") |> filter(n_al >1)

multi_al_rout

# A tibble: 128 × 3
   origin dest   n_al
   <chr>  <chr> <int>
 1 EWR    ATL       4
 2 EWR    AUS       2
 3 EWR    BDL       2
 4 EWR    BNA       2
 5 EWR    BOS       3
 6 EWR    BWI       2
 7 EWR    CHS       2
 8 EWR    CLE       2
 9 EWR    CLT       3
10 EWR    CVG       2
# ℹ 118 more rows

4.6.2 6.2

 avg_arr_del <- flights |> inner_join(multi_al_rout, by = c("origin", "dest")) |> group_by(origin,dest,carrier) |> summarise(avg_arr_del=mean(arr_delay,na.rm=TRUE), .groups = "drop") |> left_join(airlines, by = "carrier")
 
 avg_arr_del

# A tibble: 343 × 5
   origin dest  carrier avg_arr_del name                    
   <chr>  <chr> <chr>         <dbl> <chr>                   
 1 EWR    ATL   9E            -6.25 Endeavor Air Inc.       
 2 EWR    ATL   DL            10.0  Delta Air Lines Inc.    
 3 EWR    ATL   EV            19.5  ExpressJet Airlines Inc.
 4 EWR    ATL   UA            10.5  United Air Lines Inc.   
 5 EWR    AUS   UA             4.28 United Air Lines Inc.   
 6 EWR    AUS   WN           -11.2  Southwest Airlines Co.  
 7 EWR    BDL   EV             6.78 ExpressJet Airlines Inc.
 8 EWR    BDL   UA            22.6  United Air Lines Inc.   
 9 EWR    BNA   EV            17.7  ExpressJet Airlines Inc.
10 EWR    BNA   WN            -2.13 Southwest Airlines Co.  
# ℹ 333 more rows
4.6.3 6.3

avg_arr_del_airlines <- avg_arr_del |> left_join(airlines, by = "carrier") 

route_results <- avg_arr_del_airlines |> group_by(origin,dest) |>
  summarise(
    fastest_airline = name.x[which.max(avg_arr_del)],
    fastest_airline_del = min(avg_arr_del, na.rm = TRUE),
    slowest_airline = name.x[which.min(avg_arr_del)],
    slowest_airline_del = max(avg_arr_del, na.rm = TRUE),
    .groups = "drop"
  )
avg_arr_del_airlines

# A tibble: 343 × 6
   origin dest  carrier avg_arr_del name.x                   name.y             
   <chr>  <chr> <chr>         <dbl> <chr>                    <chr>              
 1 EWR    ATL   9E            -6.25 Endeavor Air Inc.        Endeavor Air Inc.  
 2 EWR    ATL   DL            10.0  Delta Air Lines Inc.     Delta Air Lines In…
 3 EWR    ATL   EV            19.5  ExpressJet Airlines Inc. ExpressJet Airline…
 4 EWR    ATL   UA            10.5  United Air Lines Inc.    United Air Lines I…
 5 EWR    AUS   UA             4.28 United Air Lines Inc.    United Air Lines I…
 6 EWR    AUS   WN           -11.2  Southwest Airlines Co.   Southwest Airlines…
 7 EWR    BDL   EV             6.78 ExpressJet Airlines Inc. ExpressJet Airline…
 8 EWR    BDL   UA            22.6  United Air Lines Inc.    United Air Lines I…
 9 EWR    BNA   EV            17.7  ExpressJet Airlines Inc. ExpressJet Airline…
10 EWR    BNA   WN            -2.13 Southwest Airlines Co.   Southwest Airlines…
# ℹ 333 more rows
…
